name: Stores
description: |-

  APIs for browsing and managing stores
endpoints:
  -
    custom: []
    httpMethods:
      - GET
    uri: api/v1/stores/search
    metadata:
      custom: []
      groupName: Stores
      groupDescription: |-

        APIs for browsing and managing stores
      subgroup: ''
      subgroupDescription: ''
      title: 'Search stores'
      description: 'Search for stores by name or description.'
      authenticated: false
      deprecated: false
    headers:
      Content-Type: application/json
      Accept: application/json
    urlParameters: []
    cleanUrlParameters: []
    queryParameters:
      q:
        custom: []
        name: q
        description: 'Search query.'
        required: false
        example: electronics
        type: string
        enumValues: []
        exampleWasSpecified: true
        nullable: false
        deprecated: false
      category:
        custom: []
        name: category
        description: 'Filter by category slug.'
        required: false
        example: electronics
        type: string
        enumValues: []
        exampleWasSpecified: true
        nullable: false
        deprecated: false
      city:
        custom: []
        name: city
        description: 'Filter by city.'
        required: false
        example: Algiers
        type: string
        enumValues: []
        exampleWasSpecified: true
        nullable: false
        deprecated: false
      verified:
        custom: []
        name: verified
        description: 'Filter verified stores only.'
        required: false
        example: true
        type: boolean
        enumValues: []
        exampleWasSpecified: true
        nullable: false
        deprecated: false
      per_page:
        custom: []
        name: per_page
        description: 'Results per page (max 50).'
        required: false
        example: 15
        type: integer
        enumValues: []
        exampleWasSpecified: true
        nullable: false
        deprecated: false
    cleanQueryParameters:
      q: electronics
      category: electronics
      city: Algiers
      verified: true
      per_page: 15
    bodyParameters: []
    cleanBodyParameters: []
    fileParameters: []
    responses:
      -
        custom: []
        status: 200
        content: |-
          {
            "data": [
              {"id": 1, "name": "Tech Store", "slug": "tech-store", "avg_rating": 4.5, "reviews_count": 25}
            ],
            "meta": {"current_page": 1, "last_page": 5, "per_page": 15, "total": 75}
          }
        headers: []
        description: ''
    responseFields: []
    auth: []
    controller: null
    method: null
    route: null
  -
    custom: []
    httpMethods:
      - GET
    uri: 'api/v1/stores/{slug}'
    metadata:
      custom: []
      groupName: Stores
      groupDescription: |-

        APIs for browsing and managing stores
      subgroup: ''
      subgroupDescription: ''
      title: 'Get store details'
      description: 'Get detailed information about a specific store.'
      authenticated: false
      deprecated: false
    headers:
      Content-Type: application/json
      Accept: application/json
    urlParameters:
      slug:
        custom: []
        name: slug
        description: 'The store slug.'
        required: true
        example: tech-store
        type: string
        enumValues: []
        exampleWasSpecified: true
        nullable: false
        deprecated: false
    cleanUrlParameters:
      slug: tech-store
    queryParameters: []
    cleanQueryParameters: []
    bodyParameters: []
    cleanBodyParameters: []
    fileParameters: []
    responses:
      -
        custom: []
        status: 200
        content: |-
          {
            "data": {
              "id": 1,
              "name": "Tech Store",
              "slug": "tech-store",
              "description": "Your one-stop electronics shop",
              "is_verified": true,
              "avg_rating": 4.5,
              "reviews_count": 25,
              "categories": [...],
              "links": [...],
              "contacts": {...}
            }
          }
        headers: []
        description: ''
    responseFields: []
    auth: []
    controller: null
    method: null
    route: null
  -
    custom: []
    httpMethods:
      - GET
    uri: 'api/v1/stores/{slug}/summary'
    metadata:
      custom: []
      groupName: Stores
      groupDescription: |-

        APIs for browsing and managing stores
      subgroup: ''
      subgroupDescription: ''
      title: 'Get store summary'
      description: 'Get a summary of store ratings and verification status.'
      authenticated: false
      deprecated: false
    headers:
      Content-Type: application/json
      Accept: application/json
    urlParameters:
      slug:
        custom: []
        name: slug
        description: 'The store slug.'
        required: true
        example: tech-store
        type: string
        enumValues: []
        exampleWasSpecified: true
        nullable: false
        deprecated: false
    cleanUrlParameters:
      slug: tech-store
    queryParameters: []
    cleanQueryParameters: []
    bodyParameters: []
    cleanBodyParameters: []
    fileParameters: []
    responses:
      -
        custom: []
        status: 200
        content: |-
          {
            "data": {
              "avg_rating": 4.5,
              "reviews_count": 25,
              "is_verified": true,
              "rating_breakdown": {"1": 2, "2": 1, "3": 5, "4": 8, "5": 9},
              "proof_badge": true
            }
          }
        headers: []
        description: ''
    responseFields: []
    auth: []
    controller: null
    method: null
    route: null
  -
    custom: []
    httpMethods:
      - POST
    uri: api/v1/stores
    metadata:
      custom: []
      groupName: Stores
      groupDescription: |-

        APIs for browsing and managing stores
      subgroup: ''
      subgroupDescription: ''
      title: 'Create a new store'
      description: 'Submit a new store for listing.'
      authenticated: true
      deprecated: false
    headers:
      Authorization: 'Bearer {YOUR_AUTH_TOKEN}'
      Content-Type: application/json
      Accept: application/json
    urlParameters: []
    cleanUrlParameters: []
    queryParameters: []
    cleanQueryParameters: []
    bodyParameters:
      name:
        custom: []
        name: name
        description: 'The store name.'
        required: true
        example: 'My Store'
        type: string
        enumValues: []
        exampleWasSpecified: true
        nullable: false
        deprecated: false
      description:
        custom: []
        name: description
        description: 'Store description.'
        required: false
        example: 'A great store for electronics'
        type: string
        enumValues: []
        exampleWasSpecified: true
        nullable: true
        deprecated: false
      city:
        custom: []
        name: city
        description: 'Store city.'
        required: false
        example: Algiers
        type: string
        enumValues: []
        exampleWasSpecified: true
        nullable: true
        deprecated: false
      category_ids:
        custom: []
        name: category_ids
        description: 'Array of category IDs.'
        required: true
        example:
          - 1
          - 2
        type: 'string[]'
        enumValues: []
        exampleWasSpecified: true
        nullable: false
        deprecated: false
      links:
        custom: []
        name: links
        description: 'Store social media links.'
        required: false
        example:
          - architecto
        type: 'string[]'
        enumValues: []
        exampleWasSpecified: false
        nullable: true
        deprecated: false
      contacts:
        custom: []
        name: contacts
        description: 'Store contact information.'
        required: false
        example: []
        type: object
        enumValues: []
        exampleWasSpecified: false
        nullable: true
        deprecated: false
      contacts.whatsapp:
        custom: []
        name: contacts.whatsapp
        description: 'WhatsApp number.'
        required: false
        example: '+213555123456'
        type: string
        enumValues: []
        exampleWasSpecified: true
        nullable: true
        deprecated: false
      contacts.phone:
        custom: []
        name: contacts.phone
        description: 'Phone number.'
        required: false
        example: '+213555123456'
        type: string
        enumValues: []
        exampleWasSpecified: true
        nullable: true
        deprecated: false
      'links[].platform':
        custom: []
        name: 'links[].platform'
        description: 'Platform type (instagram, facebook, tiktok, website).'
        required: true
        example: instagram
        type: string
        enumValues: []
        exampleWasSpecified: true
        nullable: false
        deprecated: false
      'links[].url':
        custom: []
        name: 'links[].url'
        description: 'Platform URL.'
        required: true
        example: 'https://instagram.com/mystore'
        type: string
        enumValues: []
        exampleWasSpecified: true
        nullable: false
        deprecated: false
      'links[].handle':
        custom: []
        name: 'links[].handle'
        description: 'Platform handle.'
        required: false
        example: mystore
        type: string
        enumValues: []
        exampleWasSpecified: true
        nullable: true
        deprecated: false
    cleanBodyParameters:
      name: 'My Store'
      description: 'A great store for electronics'
      city: Algiers
      category_ids:
        - 1
        - 2
      links:
        - architecto
      contacts:
        whatsapp: '+213555123456'
        phone: '+213555123456'
    fileParameters: []
    responses:
      -
        custom: []
        status: 201
        content: |-
          {
            "message": "Store created successfully",
            "data": {"id": 1, "name": "My Store", "slug": "my-store-abc123"}
          }
        headers: []
        description: ''
    responseFields: []
    auth:
      - headers
      - Authorization
      - 'Bearer 6g43cv8PD1aE5beadkZfhV6'
    controller: null
    method: null
    route: null
